Sat May 14 18:45:25 EAT 2016
Sat May 14 18:47:41 EAT 2016
Sat May 14 18:49:19 EAT 2016
Sat May 14 18:49:46 EAT 2016
Sat May 14 19:00:35 EAT 2016
Sat May 14 19:05:17 EAT 2016
Sat May 14 20:22:56 EAT 2016
Sat May 14 20:26:26 EAT 2016
Sat May 14 21:26:10 EAT 2016
Sat May 14 21:33:00 EAT 2016
Sat May 14 21:39:33 EAT 2016
Sat May 14 21:40:16 EAT 2016
Sat May 14 21:40:46 EAT 2016
Sat May 14 21:43:07 EAT 2016
Sat May 14 21:43:41 EAT 2016
Sat May 14 21:45:51 EAT 2016
Sat May 14 21:47:39 EAT 2016
Sat May 14 21:47:56 EAT 2016
Sat May 14 21:48:24 EAT 2016
Sat May 14 21:49:07 EAT 2016
Sat May 14 21:49:16 EAT 2016
Sat May 14 21:50:48 EAT 2016
Sat May 14 21:51:07 EAT 2016
Sat May 14 21:52:28 EAT 2016
Sat May 14 21:53:06 EAT 2016
Sat May 14 21:55:03 EAT 2016
Sat May 14 21:55:14 EAT 2016
Sat May 14 21:55:46 EAT 2016
Sat May 14 21:55:58 EAT 2016
Sat May 14 21:57:04 EAT 2016
Sat May 14 22:00:45 EAT 2016
Sat May 14 22:01:55 EAT 2016
Sat May 14 22:02:15 EAT 2016
Sat May 14 22:03:01 EAT 2016
Sat May 14 22:10:26 EAT 2016
Sat May 14 22:17:54 EAT 2016
Sat May 14 22:20:54 EAT 2016
Sat May 14 22:23:43 EAT 2016
Sat May 14 22:24:48 EAT 2016
Sat May 14 22:25:04 EAT 2016
Sat May 14 22:28:11 EAT 2016
Sat May 14 22:50:48 EAT 2016
Sat May 14 22:53:14 EAT 2016
Sat May 14 22:56:26 EAT 2016
Sat May 14 22:56:58 EAT 2016
Sat May 14 22:59:11 EAT 2016
Sat May 14 23:00:02 EAT 2016
Sat May 14 23:00:13 EAT 2016
Sat May 14 23:04:03 EAT 2016
Sat May 14 23:04:33 EAT 2016
Sat May 14 23:04:51 EAT 2016
Sat May 14 23:39:42 EAT 2016
Sat May 14 23:41:05 EAT 2016
Sat May 14 23:44:26 EAT 2016
Sat May 14 23:50:13 EAT 2016
Sat May 14 23:51:42 EAT 2016
Sat May 14 23:52:03 EAT 2016
Sat May 14 23:52:47 EAT 2016
Sun May 15 00:10:30 EAT 2016
Sun May 15 00:10:57 EAT 2016
Sun May 15 00:12:05 EAT 2016
Sun May 15 00:12:16 EAT 2016
Sun May 15 00:38:13 EAT 2016
Sun May 15 00:39:06 EAT 2016
Sun May 15 00:39:59 EAT 2016
Sun May 15 00:42:09 EAT 2016
Sun May 15 00:43:06 EAT 2016
Sun May 15 00:43:17 EAT 2016
Sun May 15 00:43:25 EAT 2016
Sun May 15 00:43:42 EAT 2016
Sun May 15 00:43:59 EAT 2016
Sun May 15 00:44:10 EAT 2016
Sun May 15 00:44:21 EAT 2016
Sun May 15 00:49:19 EAT 2016
Sun May 15 00:49:42 EAT 2016
Sun May 15 00:49:51 EAT 2016
Sun May 15 00:50:01 EAT 2016
Sun May 15 00:56:20 EAT 2016
Sun May 15 00:56:34 EAT 2016
Sun May 15 00:57:53 EAT 2016
Sun May 15 00:58:23 EAT 2016
Sun May 15 00:58:41 EAT 2016
Sun May 15 00:59:04 EAT 2016
Sun May 15 00:59:16 EAT 2016
Sun May 15 00:59:27 EAT 2016
Sun May 15 00:59:43 EAT 2016
Sun May 15 01:00:26 EAT 2016
Sun May 15 01:00:46 EAT 2016
Sun May 15 01:01:06 EAT 2016
Sun May 15 01:01:16 EAT 2016
Sun May 15 01:01:36 EAT 2016
Sun May 15 01:02:01 EAT 2016
Sun May 15 01:02:36 EAT 2016
Sun May 15 01:03:12 EAT 2016
Sun May 15 01:11:42 EAT 2016
Sun May 15 01:12:15 EAT 2016
Sun May 15 01:12:57 EAT 2016
Sun May 15 01:13:21 EAT 2016
Sun May 15 01:13:33 EAT 2016
Sun May 15 01:13:49 EAT 2016
Sun May 15 01:14:14 EAT 2016
Sun May 15 01:14:44 EAT 2016
Sun May 15 01:15:17 EAT 2016
Sun May 15 01:16:34 EAT 2016
Sun May 15 01:34:52 EAT 2016
Sun May 15 01:35:36 EAT 2016
Sun May 15 01:56:50 EAT 2016
Sun May 15 01:57:27 EAT 2016
Sun May 15 01:57:52 EAT 2016
Sun May 15 01:58:07 EAT 2016
Sun May 15 01:58:21 EAT 2016
Sun May 15 01:58:41 EAT 2016
Sun May 15 01:58:58 EAT 2016
Sun May 15 12:44:12 EAT 2016
Sun May 15 13:38:46 EAT 2016
Sun May 15 13:40:53 EAT 2016
Sun May 15 13:43:08 EAT 2016
Sun May 15 13:43:42 EAT 2016
Sun May 15 13:44:31 EAT 2016
Sun May 15 13:46:36 EAT 2016
Sun May 15 13:48:21 EAT 2016
Sun May 15 13:49:16 EAT 2016
Sun May 15 13:49:38 EAT 2016
Sun May 15 13:51:08 EAT 2016
Sun May 15 13:51:44 EAT 2016
Sun May 15 13:52:14 EAT 2016
Sun May 15 13:54:13 EAT 2016
Sun May 15 13:55:05 EAT 2016
Sun May 15 13:55:38 EAT 2016
Sun May 15 13:57:47 EAT 2016
Sun May 15 13:59:09 EAT 2016
Sun May 15 14:00:03 EAT 2016
Sun May 15 14:00:58 EAT 2016
Sun May 15 14:01:46 EAT 2016
Sun May 15 14:02:30 EAT 2016
Sun May 15 14:03:12 EAT 2016
Sun May 15 14:03:36 EAT 2016
Sun May 15 14:05:22 EAT 2016
Sun May 15 14:06:00 EAT 2016
Sun May 15 14:09:28 EAT 2016
Sun May 15 14:09:38 EAT 2016
Sun May 15 14:10:40 EAT 2016
Sun May 15 14:11:46 EAT 2016
Sun May 15 14:22:29 EAT 2016
Sun May 15 14:31:22 EAT 2016
Sun May 15 14:32:20 EAT 2016
Sun May 15 14:32:42 EAT 2016
Sun May 15 14:34:45 EAT 2016
Sun May 15 14:45:39 EAT 2016
Sun May 15 14:46:04 EAT 2016
Sun May 15 14:47:48 EAT 2016
Sun May 15 14:48:45 EAT 2016
Sun May 15 14:49:05 EAT 2016
Sun May 15 14:50:02 EAT 2016
Sun May 15 14:51:32 EAT 2016
Sun May 15 14:51:39 EAT 2016
Sun May 15 14:51:59 EAT 2016
Sun May 15 14:52:12 EAT 2016
Sun May 15 14:52:27 EAT 2016
Sun May 15 14:52:57 EAT 2016
Sun May 15 14:56:49 EAT 2016
Sun May 15 14:57:26 EAT 2016
Sun May 15 15:02:26 EAT 2016
Sun May 15 15:02:35 EAT 2016
Sun May 15 15:03:32 EAT 2016
Sun May 15 15:03:39 EAT 2016
Sun May 15 15:05:38 EAT 2016
Sun May 15 15:07:46 EAT 2016
Sun May 15 15:09:27 EAT 2016
Sun May 15 15:09:53 EAT 2016
Sun May 15 15:09:59 EAT 2016
Sun May 15 15:10:50 EAT 2016
Sun May 15 15:10:53 EAT 2016
Sun May 15 15:13:18 EAT 2016
Sun May 15 15:13:27 EAT 2016
Sun May 15 15:13:35 EAT 2016
Sun May 15 15:14:20 EAT 2016
Sun May 15 15:14:40 EAT 2016
Sun May 15 15:14:45 EAT 2016
Sun May 15 15:17:38 EAT 2016
Sun May 15 15:17:44 EAT 2016
Sun May 15 15:19:04 EAT 2016
Sun May 15 15:19:10 EAT 2016
Sun May 15 15:19:50 EAT 2016
Sun May 15 15:19:56 EAT 2016
Sun May 15 15:23:30 EAT 2016
Sun May 15 15:23:37 EAT 2016
Sun May 15 15:24:57 EAT 2016
Sun May 15 15:25:04 EAT 2016
Sun May 15 15:26:04 EAT 2016
Sun May 15 15:27:29 EAT 2016
Sun May 15 15:27:42 EAT 2016
Sun May 15 15:27:54 EAT 2016
Sun May 15 15:28:00 EAT 2016
Sun May 15 15:29:28 EAT 2016
Sun May 15 15:29:35 EAT 2016
Sun May 15 15:31:53 EAT 2016
Sun May 15 15:32:00 EAT 2016
Sun May 15 15:33:31 EAT 2016
Sun May 15 15:33:37 EAT 2016
Sun May 15 15:34:32 EAT 2016
Sun May 15 15:34:49 EAT 2016
Sun May 15 15:34:55 EAT 2016
Sun May 15 15:35:50 EAT 2016
Sun May 15 15:35:56 EAT 2016
Sun May 15 15:36:55 EAT 2016
Sun May 15 15:37:03 EAT 2016
Sun May 15 15:39:30 EAT 2016
Sun May 15 15:39:35 EAT 2016
Sun May 15 15:40:44 EAT 2016
Sun May 15 15:40:50 EAT 2016
Sun May 15 15:41:48 EAT 2016
Sun May 15 15:41:54 EAT 2016
Sun May 15 15:43:03 EAT 2016
Sun May 15 15:43:10 EAT 2016
Sun May 15 15:44:04 EAT 2016
Sun May 15 15:44:10 EAT 2016
Sun May 15 15:45:22 EAT 2016
Sun May 15 15:45:27 EAT 2016
Sun May 15 15:47:11 EAT 2016
Sun May 15 15:47:17 EAT 2016
Sun May 15 15:48:01 EAT 2016
Sun May 15 15:48:10 EAT 2016
Sun May 15 15:51:31 EAT 2016
Sun May 15 15:51:36 EAT 2016
Sun May 15 15:52:19 EAT 2016
Sun May 15 15:52:26 EAT 2016
Sun May 15 15:52:32 EAT 2016
Sun May 15 15:54:49 EAT 2016
Sun May 15 15:54:58 EAT 2016
Sun May 15 15:56:05 EAT 2016
Sun May 15 15:56:11 EAT 2016
Sun May 15 15:59:00 EAT 2016
Sun May 15 15:59:07 EAT 2016
Sun May 15 16:01:04 EAT 2016
Sun May 15 16:01:13 EAT 2016
Sun May 15 16:56:37 EAT 2016
Sun May 15 16:56:43 EAT 2016
Sun May 15 17:11:02 EAT 2016
Sun May 15 17:15:40 EAT 2016
Sun May 15 17:18:25 EAT 2016
Sun May 15 17:18:36 EAT 2016
Sun May 15 17:35:41 EAT 2016
Sun May 15 17:35:48 EAT 2016
Sun May 15 18:34:49 EAT 2016
Sun May 15 18:35:38 EAT 2016
Sun May 15 18:36:00 EAT 2016
Sun May 15 18:36:47 EAT 2016
Sun May 15 18:37:27 EAT 2016
Sun May 15 18:40:52 EAT 2016
Sun May 15 18:41:02 EAT 2016
Sun May 15 18:42:21 EAT 2016
Sun May 15 18:42:28 EAT 2016
Sun May 15 18:43:48 EAT 2016
Sun May 15 18:43:54 EAT 2016
Sun May 15 18:46:13 EAT 2016
Sun May 15 18:46:19 EAT 2016
Sun May 15 18:48:27 EAT 2016
Sun May 15 18:48:34 EAT 2016
Sun May 15 18:51:42 EAT 2016
Sun May 15 18:51:49 EAT 2016
Sun May 15 19:07:17 EAT 2016
Sun May 15 19:07:25 EAT 2016
Sun May 15 19:08:09 EAT 2016
Sun May 15 19:08:16 EAT 2016
Sun May 15 19:08:23 EAT 2016
Sun May 15 19:09:41 EAT 2016
Sun May 15 19:09:47 EAT 2016
Sun May 15 19:47:02 EAT 2016
Sun May 15 19:54:02 EAT 2016
Sun May 15 19:54:20 EAT 2016
Sun May 15 19:54:53 EAT 2016
Sun May 15 19:57:21 EAT 2016
Sun May 15 20:00:02 EAT 2016
Sun May 15 20:00:36 EAT 2016
Sun May 15 20:01:23 EAT 2016
Sun May 15 20:02:47 EAT 2016
Sun May 15 20:07:23 EAT 2016
Sun May 15 20:09:07 EAT 2016
Sun May 15 20:09:14 EAT 2016
Sun May 15 20:11:19 EAT 2016
Sun May 15 20:11:27 EAT 2016
Sun May 15 20:12:41 EAT 2016
Sun May 15 20:12:47 EAT 2016
Sun May 15 20:13:46 EAT 2016
Sun May 15 20:13:52 EAT 2016
Sun May 15 23:29:16 EAT 2016
Sun May 15 23:29:38 EAT 2016
Sun May 15 23:30:13 EAT 2016
Sun May 15 23:30:19 EAT 2016
Mon May 16 00:28:05 EAT 2016
Mon May 16 00:28:48 EAT 2016
Mon May 16 00:28:59 EAT 2016
Mon May 16 00:29:32 EAT 2016
Mon May 16 00:30:35 EAT 2016
Mon May 16 08:30:27 EAT 2016
Mon May 16 08:30:44 EAT 2016
Mon May 16 08:34:56 EAT 2016
Mon May 16 20:38:02 EAT 2016
Mon May 16 22:03:54 EAT 2016
Mon May 16 22:04:24 EAT 2016
Mon May 16 22:06:15 EAT 2016
Mon May 16 22:08:18 EAT 2016
Mon May 16 22:08:44 EAT 2016
Mon May 16 22:08:53 EAT 2016
Mon May 16 22:15:12 EAT 2016
Mon May 16 22:15:30 EAT 2016
Mon May 16 23:01:18 EAT 2016
Mon May 16 23:01:41 EAT 2016
Mon May 16 23:07:53 EAT 2016
Mon May 16 23:08:08 EAT 2016
Mon May 16 23:51:21 EAT 2016
Mon May 16 23:52:27 EAT 2016
Mon May 16 23:52:59 EAT 2016
Mon May 16 23:53:34 EAT 2016
Tue May 17 00:11:43 EAT 2016
Tue May 17 00:11:51 EAT 2016
Tue May 17 12:45:18 EAT 2016
Tue May 17 12:53:51 EAT 2016
Tue May 17 12:54:12 EAT 2016
Tue May 17 12:57:12 EAT 2016
Tue May 17 12:59:45 EAT 2016
Tue May 17 13:02:49 EAT 2016
Tue May 17 13:03:03 EAT 2016
Tue May 17 13:23:15 EAT 2016
Tue May 17 13:27:21 EAT 2016
Tue May 17 13:28:09 EAT 2016
Tue May 17 13:28:30 EAT 2016
Tue May 17 13:29:40 EAT 2016
Tue May 17 13:29:49 EAT 2016
Mon May 23 15:49:57 EAT 2016
Mon May 23 15:50:40 EAT 2016
Mon May 23 15:50:47 EAT 2016
Mon May 23 16:00:05 EAT 2016
Mon May 23 16:00:18 EAT 2016
Mon May 23 16:21:05 EAT 2016
Mon May 23 16:21:52 EAT 2016
Mon May 23 16:26:10 EAT 2016
Mon May 23 16:27:21 EAT 2016
Mon May 23 16:31:24 EAT 2016
Mon May 23 16:31:47 EAT 2016
Mon May 23 16:32:38 EAT 2016
Mon May 23 16:36:16 EAT 2016
Mon May 23 16:43:11 EAT 2016
Mon May 23 16:43:18 EAT 2016
Mon May 23 16:44:09 EAT 2016
Mon May 23 16:44:19 EAT 2016
Mon May 23 16:45:35 EAT 2016
Mon May 23 16:45:40 EAT 2016
Mon May 23 16:46:49 EAT 2016
Mon May 23 16:46:55 EAT 2016
Mon May 23 19:55:09 EAT 2016
Mon May 23 19:56:20 EAT 2016
Mon May 23 19:56:28 EAT 2016
Mon May 23 20:50:05 EAT 2016
Mon May 23 20:50:33 EAT 2016
Mon May 23 20:51:33 EAT 2016
Mon May 23 20:55:15 EAT 2016
